^C:\USERS\NOOBSDESROOBS\DOCUMENTS\VISUAL STUDIO 2010\PROJECTS\OBLIG1\OBLIG1\DEBUG\OBLIG1_MANIFEST.RC
C:\PROGRAMDATA\NVIDIA CORPORATION\DRS\NVDRSDB0.BIN
C:\USERS\NOOBSDESROOBS\DOCUMENTS\VISUAL STUDIO 2010\PROJECTS\OBLIG1\OBLIG1\DEBUG\OBLIG1.EXE.EMBED.MANIFEST
