^C:\USERS\NOOBSDESROOBS\DOCUMENTS\VISUAL STUDIO 2012\PROJECTS\OBLIG1\OBLIG1\MAIN.CPP
/c /I"C:\Users\NoobsDeSroobs\Documents\Visual Studio 2012\OpenGL\glm-0.9.5.4\glm" /I"C:\Users\NoobsDeSroobs\Documents\Visual Studio 2012\OpenGL\SFML-2.1-windows-vc11-64bits\SFML-2.1\include" /I"C:\Users\NoobsDeSroobs\Documents\Visual Studio 2012\OpenGL\glew-1.10.0-win32\glew-1.10.0\include" /Zi /nologo /W3 /WX- /Od /D SFML_STATIC /D WIN32 /D _DEBUG /D _CONSOLE /D _UNICODE /D UNICODE /Gm /EHsc /RTC1 /MDd /GS /fp:precise /Zc:wchar_t /Zc:forScope /Fo"X64\DEBUG\\" /Fd"X64\DEBUG\VC110.PDB" /Gd /TP C:\USERS\NOOBSDESROOBS\DOCUMENTS\VISUAL STUDIO 2012\PROJECTS\OBLIG1\OBLIG1\MAIN.CPP
^C:\USERS\NOOBSDESROOBS\DOCUMENTS\VISUAL STUDIO 2012\PROJECTS\OBLIG1\OBLIG1\MAIN_OLD.C
/c /I"C:\Users\NoobsDeSroobs\Documents\Visual Studio 2012\OpenGL\glm-0.9.5.4\glm" /I"C:\Users\NoobsDeSroobs\Documents\Visual Studio 2012\OpenGL\SFML-2.1-windows-vc11-64bits\SFML-2.1\include" /I"C:\Users\NoobsDeSroobs\Documents\Visual Studio 2012\OpenGL\glew-1.10.0-win32\glew-1.10.0\include" /Zi /nologo /W3 /WX- /Od /D SFML_STATIC /D WIN32 /D _DEBUG /D _CONSOLE /D _UNICODE /D UNICODE /Gm /EHsc /RTC1 /MDd /GS /fp:precise /Zc:wchar_t /Zc:forScope /Fo"X64\DEBUG\\" /Fd"X64\DEBUG\VC110.PDB" /Gd /TC C:\USERS\NOOBSDESROOBS\DOCUMENTS\VISUAL STUDIO 2012\PROJECTS\OBLIG1\OBLIG1\MAIN_OLD.C
^C:\USERS\NOOBSDESROOBS\DOCUMENTS\VISUAL STUDIO 2012\PROJECTS\OBLIG1\OBLIG1\CAMERA.CPP
/c /I"C:\Users\NoobsDeSroobs\Documents\Visual Studio 2012\OpenGL\glm-0.9.5.4\glm" /I"C:\Users\NoobsDeSroobs\Documents\Visual Studio 2012\OpenGL\SFML-2.1-windows-vc11-64bits\SFML-2.1\include" /I"C:\Users\NoobsDeSroobs\Documents\Visual Studio 2012\OpenGL\glew-1.10.0-win32\glew-1.10.0\include" /Zi /nologo /W3 /WX- /Od /D SFML_STATIC /D WIN32 /D _DEBUG /D _CONSOLE /D _UNICODE /D UNICODE /Gm /EHsc /RTC1 /MDd /GS /fp:precise /Zc:wchar_t /Zc:forScope /Fo"X64\DEBUG\\" /Fd"X64\DEBUG\VC110.PDB" /Gd /TP C:\USERS\NOOBSDESROOBS\DOCUMENTS\VISUAL STUDIO 2012\PROJECTS\OBLIG1\OBLIG1\CAMERA.CPP
^C:\USERS\NOOBSDESROOBS\DOCUMENTS\VISUAL STUDIO 2012\PROJECTS\OBLIG1\OBLIG1\GENERATESHAPE.CPP
/c /I"C:\Users\NoobsDeSroobs\Documents\Visual Studio 2012\OpenGL\glm-0.9.5.4\glm" /I"C:\Users\NoobsDeSroobs\Documents\Visual Studio 2012\OpenGL\SFML-2.1-windows-vc11-64bits\SFML-2.1\include" /I"C:\Users\NoobsDeSroobs\Documents\Visual Studio 2012\OpenGL\glew-1.10.0-win32\glew-1.10.0\include" /Zi /nologo /W3 /WX- /Od /D SFML_STATIC /D WIN32 /D _DEBUG /D _CONSOLE /D _UNICODE /D UNICODE /Gm /EHsc /RTC1 /MDd /GS /fp:precise /Zc:wchar_t /Zc:forScope /Fo"X64\DEBUG\\" /Fd"X64\DEBUG\VC110.PDB" /Gd /TP C:\USERS\NOOBSDESROOBS\DOCUMENTS\VISUAL STUDIO 2012\PROJECTS\OBLIG1\OBLIG1\GENERATESHAPE.CPP
^C:\USERS\NOOBSDESROOBS\DOCUMENTS\VISUAL STUDIO 2012\PROJECTS\OBLIG1\OBLIG1\OBJREADER.CPP
/c /I"C:\Users\NoobsDeSroobs\Documents\Visual Studio 2012\OpenGL\glm-0.9.5.4\glm" /I"C:\Users\NoobsDeSroobs\Documents\Visual Studio 2012\OpenGL\SFML-2.1-windows-vc11-64bits\SFML-2.1\include" /I"C:\Users\NoobsDeSroobs\Documents\Visual Studio 2012\OpenGL\glew-1.10.0-win32\glew-1.10.0\include" /Zi /nologo /W3 /WX- /Od /D SFML_STATIC /D WIN32 /D _DEBUG /D _CONSOLE /D _UNICODE /D UNICODE /Gm /EHsc /RTC1 /MDd /GS /fp:precise /Zc:wchar_t /Zc:forScope /Fo"X64\DEBUG\\" /Fd"X64\DEBUG\VC110.PDB" /Gd /TP C:\USERS\NOOBSDESROOBS\DOCUMENTS\VISUAL STUDIO 2012\PROJECTS\OBLIG1\OBLIG1\OBJREADER.CPP
^C:\USERS\NOOBSDESROOBS\DOCUMENTS\VISUAL STUDIO 2012\PROJECTS\OBLIG1\OBLIG1\PROP.CPP
/c /I"C:\Users\NoobsDeSroobs\Documents\Visual Studio 2012\OpenGL\glm-0.9.5.4\glm" /I"C:\Users\NoobsDeSroobs\Documents\Visual Studio 2012\OpenGL\SFML-2.1-windows-vc11-64bits\SFML-2.1\include" /I"C:\Users\NoobsDeSroobs\Documents\Visual Studio 2012\OpenGL\glew-1.10.0-win32\glew-1.10.0\include" /Zi /nologo /W3 /WX- /Od /D SFML_STATIC /D WIN32 /D _DEBUG /D _CONSOLE /D _UNICODE /D UNICODE /Gm /EHsc /RTC1 /MDd /GS /fp:precise /Zc:wchar_t /Zc:forScope /Fo"X64\DEBUG\\" /Fd"X64\DEBUG\VC110.PDB" /Gd /TP C:\USERS\NOOBSDESROOBS\DOCUMENTS\VISUAL STUDIO 2012\PROJECTS\OBLIG1\OBLIG1\PROP.CPP
^E:\DROPBOX\SCHOOLWORK\OPENGL\OBLIG1\OBLIG1\CAMERA.CPP
/c /I"C:\Users\NoobsDeSroobs\Documents\Visual Studio 2013\OpenGL\glm-0.9.5.4\glm" /I"C:\Users\NoobsDeSroobs\Documents\Visual Studio 2013\OpenGL\SFML-2.1-windows-vc11-64bits\SFML-2.1\include" /I"C:\Users\NoobsDeSroobs\Documents\Visual Studio 2013\OpenGL\glew-1.10.0-win32\glew-1.10.0\include" /Zi /nologo /W3 /WX- /Od /D SFML_STATIC /D WIN32 /D _DEBUG /D _CONSOLE /D _UNICODE /D UNICODE /Gm /EHsc /RTC1 /MTd /GS /fp:precise /Zc:wchar_t /Zc:forScope /Fo"X64\DEBUG\\" /Fd"X64\DEBUG\VC110.PDB" /Gd /TP E:\DROPBOX\SCHOOLWORK\OPENGL\OBLIG1\OBLIG1\CAMERA.CPP
^E:\DROPBOX\SCHOOLWORK\OPENGL\OBLIG1\OBLIG1\GENERATESHAPE.CPP
/c /I"C:\Users\NoobsDeSroobs\Documents\Visual Studio 2013\OpenGL\glm-0.9.5.4\glm" /I"C:\Users\NoobsDeSroobs\Documents\Visual Studio 2013\OpenGL\SFML-2.1-windows-vc11-64bits\SFML-2.1\include" /I"C:\Users\NoobsDeSroobs\Documents\Visual Studio 2013\OpenGL\glew-1.10.0-win32\glew-1.10.0\include" /Zi /nologo /W3 /WX- /Od /D SFML_STATIC /D WIN32 /D _DEBUG /D _CONSOLE /D _UNICODE /D UNICODE /Gm /EHsc /RTC1 /MTd /GS /fp:precise /Zc:wchar_t /Zc:forScope /Fo"X64\DEBUG\\" /Fd"X64\DEBUG\VC110.PDB" /Gd /TP E:\DROPBOX\SCHOOLWORK\OPENGL\OBLIG1\OBLIG1\GENERATESHAPE.CPP
^E:\DROPBOX\SCHOOLWORK\OPENGL\OBLIG1\OBLIG1\MAIN.CPP
/c /I"C:\Users\NoobsDeSroobs\Documents\Visual Studio 2013\OpenGL\glm-0.9.5.4\glm" /I"C:\Users\NoobsDeSroobs\Documents\Visual Studio 2013\OpenGL\SFML-2.1-windows-vc11-64bits\SFML-2.1\include" /I"C:\Users\NoobsDeSroobs\Documents\Visual Studio 2013\OpenGL\glew-1.10.0-win32\glew-1.10.0\include" /Zi /nologo /W3 /WX- /Od /D SFML_STATIC /D WIN32 /D _DEBUG /D _CONSOLE /D _UNICODE /D UNICODE /Gm /EHsc /RTC1 /MTd /GS /fp:precise /Zc:wchar_t /Zc:forScope /Fo"X64\DEBUG\\" /Fd"X64\DEBUG\VC110.PDB" /Gd /TP E:\DROPBOX\SCHOOLWORK\OPENGL\OBLIG1\OBLIG1\MAIN.CPP
^E:\DROPBOX\SCHOOLWORK\OPENGL\OBLIG1\OBLIG1\OBJREADER.CPP
/c /I"C:\Users\NoobsDeSroobs\Documents\Visual Studio 2013\OpenGL\glm-0.9.5.4\glm" /I"C:\Users\NoobsDeSroobs\Documents\Visual Studio 2013\OpenGL\SFML-2.1-windows-vc11-64bits\SFML-2.1\include" /I"C:\Users\NoobsDeSroobs\Documents\Visual Studio 2013\OpenGL\glew-1.10.0-win32\glew-1.10.0\include" /Zi /nologo /W3 /WX- /Od /D SFML_STATIC /D WIN32 /D _DEBUG /D _CONSOLE /D _UNICODE /D UNICODE /Gm /EHsc /RTC1 /MDd /GS /fp:precise /Zc:wchar_t /Zc:forScope /Fo"X64\DEBUG\\" /Fd"X64\DEBUG\VC110.PDB" /Gd /TP E:\DROPBOX\SCHOOLWORK\OPENGL\OBLIG1\OBLIG1\OBJREADER.CPP
^E:\DROPBOX\SCHOOLWORK\OPENGL\OBLIG1\OBLIG1\PROP.CPP
/c /I"C:\Users\NoobsDeSroobs\Documents\Visual Studio 2013\OpenGL\glm-0.9.5.4\glm" /I"C:\Users\NoobsDeSroobs\Documents\Visual Studio 2013\OpenGL\SFML-2.1-windows-vc11-64bits\SFML-2.1\include" /I"C:\Users\NoobsDeSroobs\Documents\Visual Studio 2013\OpenGL\glew-1.10.0-win32\glew-1.10.0\include" /Zi /nologo /W3 /WX- /Od /D SFML_STATIC /D WIN32 /D _DEBUG /D _CONSOLE /D _UNICODE /D UNICODE /Gm /EHsc /RTC1 /MTd /GS /fp:precise /Zc:wchar_t /Zc:forScope /Fo"X64\DEBUG\\" /Fd"X64\DEBUG\VC110.PDB" /Gd /TP E:\DROPBOX\SCHOOLWORK\OPENGL\OBLIG1\OBLIG1\PROP.CPP
^E:\DROPBOX\SCHOOLWORK\OPENGL\OBLIG1\OBLIG1\MAIN_OLD.C
/c /I"C:\Users\NoobsDeSroobs\Documents\Visual Studio 2013\OpenGL\glm-0.9.5.4\glm" /I"C:\Users\NoobsDeSroobs\Documents\Visual Studio 2013\OpenGL\SFML-2.1-windows-vc11-64bits\SFML-2.1\include" /I"C:\Users\NoobsDeSroobs\Documents\Visual Studio 2013\OpenGL\glew-1.10.0-win32\glew-1.10.0\include" /Zi /nologo /W3 /WX- /Od /D SFML_STATIC /D WIN32 /D _DEBUG /D _CONSOLE /D _UNICODE /D UNICODE /Gm /EHsc /RTC1 /MTd /GS /fp:precise /Zc:wchar_t /Zc:forScope /Fo"X64\DEBUG\\" /Fd"X64\DEBUG\VC110.PDB" /Gd /TC E:\DROPBOX\SCHOOLWORK\OPENGL\OBLIG1\OBLIG1\MAIN_OLD.C
^C:\USERS\NOOBSDESROOBS\DROPBOX\SCHOOLWORK\OPENGL\OBLIG1\OBLIG1\CAMERA.CPP
/c /I"C:\Users\NoobsDeSroobs\Documents\Visual Studio 2012\OpenGL\glm-0.9.5.4\glm" /I"C:\Users\NoobsDeSroobs\Documents\Visual Studio 2012\OpenGL\SFML-2.1-windows-vc11-64bits\SFML-2.1\include" /I"C:\Users\NoobsDeSroobs\Documents\Visual Studio 2012\OpenGL\glew-1.10.0-win32\glew-1.10.0\include" /Zi /nologo /W3 /WX- /Od /D SFML_STATIC /D WIN32 /D _DEBUG /D _CONSOLE /D _UNICODE /D UNICODE /Gm /EHsc /RTC1 /MTd /GS /fp:precise /Zc:wchar_t /Zc:forScope /Fo"X64\DEBUG\\" /Fd"X64\DEBUG\VC110.PDB" /Gd /TP C:\USERS\NOOBSDESROOBS\DROPBOX\SCHOOLWORK\OPENGL\OBLIG1\OBLIG1\CAMERA.CPP
^C:\USERS\NOOBSDESROOBS\DROPBOX\SCHOOLWORK\OPENGL\OBLIG1\OBLIG1\GENERATESHAPE.CPP
/c /I"C:\Users\NoobsDeSroobs\Documents\Visual Studio 2012\OpenGL\glm-0.9.5.4\glm" /I"C:\Users\NoobsDeSroobs\Documents\Visual Studio 2012\OpenGL\SFML-2.1-windows-vc11-64bits\SFML-2.1\include" /I"C:\Users\NoobsDeSroobs\Documents\Visual Studio 2012\OpenGL\glew-1.10.0-win32\glew-1.10.0\include" /Zi /nologo /W3 /WX- /Od /D SFML_STATIC /D WIN32 /D _DEBUG /D _CONSOLE /D _UNICODE /D UNICODE /Gm /EHsc /RTC1 /MTd /GS /fp:precise /Zc:wchar_t /Zc:forScope /Fo"X64\DEBUG\\" /Fd"X64\DEBUG\VC110.PDB" /Gd /TP C:\USERS\NOOBSDESROOBS\DROPBOX\SCHOOLWORK\OPENGL\OBLIG1\OBLIG1\GENERATESHAPE.CPP
^C:\USERS\NOOBSDESROOBS\DROPBOX\SCHOOLWORK\OPENGL\OBLIG1\OBLIG1\MAIN.CPP
/c /I"C:\Users\NoobsDeSroobs\Documents\Visual Studio 2012\OpenGL\glm-0.9.5.4\glm" /I"C:\Users\NoobsDeSroobs\Documents\Visual Studio 2012\OpenGL\SFML-2.1-windows-vc11-64bits\SFML-2.1\include" /I"C:\Users\NoobsDeSroobs\Documents\Visual Studio 2012\OpenGL\glew-1.10.0-win32\glew-1.10.0\include" /Zi /nologo /W3 /WX- /Od /D SFML_STATIC /D WIN32 /D _DEBUG /D _CONSOLE /D _UNICODE /D UNICODE /Gm /EHsc /RTC1 /MTd /GS /fp:precise /Zc:wchar_t /Zc:forScope /Fo"X64\DEBUG\\" /Fd"X64\DEBUG\VC110.PDB" /Gd /TP C:\USERS\NOOBSDESROOBS\DROPBOX\SCHOOLWORK\OPENGL\OBLIG1\OBLIG1\MAIN.CPP
^C:\USERS\NOOBSDESROOBS\DROPBOX\SCHOOLWORK\OPENGL\OBLIG1\OBLIG1\PROP.CPP
/c /I"C:\Users\NoobsDeSroobs\Documents\Visual Studio 2012\OpenGL\glm-0.9.5.4\glm" /I"C:\Users\NoobsDeSroobs\Documents\Visual Studio 2012\OpenGL\SFML-2.1-windows-vc11-64bits\SFML-2.1\include" /I"C:\Users\NoobsDeSroobs\Documents\Visual Studio 2012\OpenGL\glew-1.10.0-win32\glew-1.10.0\include" /Zi /nologo /W3 /WX- /Od /D SFML_STATIC /D WIN32 /D _DEBUG /D _CONSOLE /D _UNICODE /D UNICODE /Gm /EHsc /RTC1 /MTd /GS /fp:precise /Zc:wchar_t /Zc:forScope /Fo"X64\DEBUG\\" /Fd"X64\DEBUG\VC110.PDB" /Gd /TP C:\USERS\NOOBSDESROOBS\DROPBOX\SCHOOLWORK\OPENGL\OBLIG1\OBLIG1\PROP.CPP
^C:\USERS\NOOBSDESROOBS\DROPBOX\SCHOOLWORK\OPENGL\OBLIG1\OBLIG1\MAIN_OLD.C
/c /I"C:\Users\NoobsDeSroobs\Documents\Visual Studio 2012\OpenGL\glm-0.9.5.4\glm" /I"C:\Users\NoobsDeSroobs\Documents\Visual Studio 2012\OpenGL\SFML-2.1-windows-vc11-64bits\SFML-2.1\include" /I"C:\Users\NoobsDeSroobs\Documents\Visual Studio 2012\OpenGL\glew-1.10.0-win32\glew-1.10.0\include" /Zi /nologo /W3 /WX- /Od /D SFML_STATIC /D WIN32 /D _DEBUG /D _CONSOLE /D _UNICODE /D UNICODE /Gm /EHsc /RTC1 /MTd /GS /fp:precise /Zc:wchar_t /Zc:forScope /Fo"X64\DEBUG\\" /Fd"X64\DEBUG\VC110.PDB" /Gd /TC C:\USERS\NOOBSDESROOBS\DROPBOX\SCHOOLWORK\OPENGL\OBLIG1\OBLIG1\MAIN_OLD.C
